{
    "template": "twitter",
    "order":    1,
    "settings": {
      "number_of_shards": 1
    },
    "mappings": {
      "tweet": {
        "_all": {
          "enabled": false
        },
        "dynamic_templates" : [ {
           "message_field" : {
             "match" : "message",
             "match_mapping_type" : "string",
             "mapping" : {
               "type" : "string", "index" : "analyzed", "omit_norms" : true
             }
           }
         }, {
           "string_fields" : {
             "match" : "*",
             "match_mapping_type" : "string",
             "mapping" : {
               "type" : "string", "index" : "analyzed", "omit_norms" : true,
                 "fields" : {
                   "raw" : {"type": "string", "index" : "not_analyzed", "ignore_above" : 256}
                 }
             }
           }
         } ],
        "properties": {
          "text": {
            "type": "string"
          },
            "coordinates": {
            "properties": {
               "coordinates": {
                  "type": "geo_point"
               },
               "type": {
                  "type": "string"
               }
            }
         }
        }
      }
    }
  }